-------------------------------------------------------------------------------
Test set: com.arcadia.samples.greeting.AppTests
-------------------------------------------------------------------------------
Tests run: 1, Failures: 0, Errors: 0, Skipped: 0, Time elapsed: 2.214 s - in com.arcadia.samples.greeting.AppTests
